<?xml version="1.0" encoding="UTF-8" standalone="no"?>
<svg
   xmlns:dc="http://purl.org/dc/elements/1.1/"
   xmlns:cc="http://creativecommons.org/ns#"
   xmlns:rdf="http://www.w3.org/1999/02/22-rdf-syntax-ns#"
   xmlns:svg="http://www.w3.org/2000/svg"
   xmlns="http://www.w3.org/2000/svg"
   xmlns:sodipodi="http://sodipodi.sourceforge.net/DTD/sodipodi-0.dtd"
   xmlns:inkscape="http://www.inkscape.org/namespaces/inkscape"
   id="Слой_1"
   data-name="Слой 1"
   viewBox="0 0 24 24"
   version="1.1"
   sodipodi:docname="insert_module_board.svg"
   inkscape:version="0.92.2 5c3e80d, 2017-08-06"
   inkscape:export-filename="/Users/jeff/kicad_dev/kicad/bitmaps_png/png_26/insert_module_board.png"
   inkscape:export-xdpi="96"
   inkscape:export-ydpi="96">
  <sodipodi:namedview
     pagecolor="#ffffff"
     bordercolor="#666666"
     borderopacity="1"
     objecttolerance="10"
     gridtolerance="10"
     guidetolerance="10"
     inkscape:pageopacity="0"
     inkscape:pageshadow="2"
     inkscape:window-width="1609"
     inkscape:window-height="1286"
     id="namedview30"
     showgrid="true"
     inkscape:zoom="27.961538"
     inkscape:cx="9.6280193"
     inkscape:cy="7.2851341"
     inkscape:window-x="0"
     inkscape:window-y="37"
     inkscape:window-maximized="0"
     inkscape:document-rotation="0"
     inkscape:current-layer="Слой_1">
    <inkscape:grid
       type="xygrid"
       id="grid_kicad"
       spacingx="0.5"
       spacingy="0.5"
       color="#9999ff"
       opacity="0.13"
       empspacing="2" />
  </sodipodi:namedview>
  <metadata
     id="metadata43">
    <rdf:RDF>
      <cc:Work
         rdf:about="">
        <cc:license
           rdf:resource="http://creativecommons.org/licenses/by-sa/4.0/" />
        <dc:format>image/svg+xml</dc:format>
        <dc:type
           rdf:resource="http://purl.org/dc/dcmitype/StillImage" />
        <dc:title>add_arc</dc:title>
      </cc:Work>
      <cc:License
         rdf:about="http://creativecommons.org/licenses/by-sa/4.0/">
        <cc:permits
           rdf:resource="http://creativecommons.org/ns#Reproduction" />
        <cc:permits
           rdf:resource="http://creativecommons.org/ns#Distribution" />
        <cc:requires
           rdf:resource="http://creativecommons.org/ns#Notice" />
        <cc:requires
           rdf:resource="http://creativecommons.org/ns#Attribution" />
        <cc:permits
           rdf:resource="http://creativecommons.org/ns#DerivativeWorks" />
        <cc:requires
           rdf:resource="http://creativecommons.org/ns#ShareAlike" />
      </cc:License>
    </rdf:RDF>
  </metadata>
  <defs
     id="defs1059">
    <style
       id="style1057">.cls-1,.cls-4{fill:none;stroke-linecap:round;stroke-linejoin:round;}.cls-1{stroke:#545454;}.cls-2{fill:#1a81c4;}.cls-3{fill:#bf2641;}.cls-4{stroke:#f5f5f5;stroke-width:2px;}</style>
  </defs>
  <title
     id="title1061">import_module</title>
  <polygon
     class="cls-1"
     points="1.247,18.938 21.508,18.938 21.524,4.066 1.247,4.066 1.247,8.586 2.996,10.161 2.996,12.335 1.247,13.911 "
     id="polygon1063"
     transform="translate(-0.44149995,-0.0043)" />
  <rect
     class="cls-2"
     x="14.3613"
     y="15.8721"
     width="4.3741002"
     height="6.1237001"
     id="rect1065" />
  <rect
     class="cls-2"
     x="3"
     y="15.8721"
     width="4.3741999"
     height="6.1237001"
     id="rect1067" />
  <rect
     class="cls-2"
     x="8.6785002"
     y="15.8721"
     width="4.3741002"
     height="6.1237001"
     id="rect1069" />
  <rect
     class="cls-2"
     x="14.3613"
     y="1"
     width="4.3741002"
     height="6.1237998"
     id="rect1071" />
  <rect
     class="cls-2"
     x="3"
     y="1"
     width="4.3741999"
     height="6.1237998"
     id="rect1073" />
  <rect
     class="cls-2"
     x="8.6785002"
     y="1"
     width="4.3741002"
     height="6.1237998"
     id="rect1075" />
  <path
     class="cls-3"
     d="M 24.0065,17 A 7.0065,7.0065 0 1 1 17,10 a 7.0032,7.0032 0 0 1 7.0065,7 z"
     id="path1077" />
  <line
     class="cls-4"
     x1="17.1038"
     y1="13.616716"
     x2="17.1038"
     y2="20.616716"
     id="line1079"
     style="fill:none;stroke:#f5f5f5;stroke-width:2px;stroke-linecap:round;stroke-linejoin:round" />
  <polyline
     class="cls-4"
     points="20.859 18.879 18.104 21.631 15.349 18.879"
     id="polyline1081"
     transform="matrix(1,0,0,-1,-1,35.028517)"
     style="fill:none;stroke:#f5f5f5;stroke-width:2px;stroke-linecap:round;stroke-linejoin:round" />
</svg>
