<?xml version="1.0" encoding="UTF-8" standalone="no"?>
<svg
   xmlns:dc="http://purl.org/dc/elements/1.1/"
   xmlns:cc="http://creativecommons.org/ns#"
   xmlns:rdf="http://www.w3.org/1999/02/22-rdf-syntax-ns#"
   xmlns:svg="http://www.w3.org/2000/svg"
   xmlns="http://www.w3.org/2000/svg"
   xmlns:sodipodi="http://sodipodi.sourceforge.net/DTD/sodipodi-0.dtd"
   xmlns:inkscape="http://www.inkscape.org/namespaces/inkscape"
   id="Слой_1"
   data-name="Слой 1"
   viewBox="0 0 24 24"
   version="1.1"
   sodipodi:docname="module_editor.svg"
   inkscape:version="1.0.1 (3bc2e813f5, 2020-09-07)">
  <sodipodi:namedview
     pagecolor="#ffffff"
     bordercolor="#666666"
     borderopacity="1"
     objecttolerance="10"
     gridtolerance="10"
     guidetolerance="10"
     inkscape:pageopacity="0"
     inkscape:pageshadow="2"
     inkscape:window-width="2520"
     inkscape:window-height="1803"
     id="namedview30"
     showgrid="true"
     inkscape:zoom="45.254834"
     inkscape:cx="12.387647"
     inkscape:cy="18.903195"
     inkscape:window-x="1077"
     inkscape:window-y="173"
     inkscape:window-maximized="0"
     inkscape:current-layer="Слой_1"
     inkscape:document-rotation="0">
    <inkscape:grid
       type="xygrid"
       id="grid873" />
  </sodipodi:namedview>
  <metadata
     id="metadata43">
    <rdf:RDF>
      <cc:Work
         rdf:about="">
        <cc:license
           rdf:resource="http://creativecommons.org/licenses/by-sa/4.0/" />
        <dc:format>image/svg+xml</dc:format>
        <dc:type
           rdf:resource="http://purl.org/dc/dcmitype/StillImage" />
        <dc:title>module_editor</dc:title>
      </cc:Work>
      <cc:License
         rdf:about="http://creativecommons.org/licenses/by-sa/4.0/">
        <cc:permits
           rdf:resource="http://creativecommons.org/ns#Reproduction" />
        <cc:permits
           rdf:resource="http://creativecommons.org/ns#Distribution" />
        <cc:requires
           rdf:resource="http://creativecommons.org/ns#Notice" />
        <cc:requires
           rdf:resource="http://creativecommons.org/ns#Attribution" />
        <cc:permits
           rdf:resource="http://creativecommons.org/ns#DerivativeWorks" />
        <cc:requires
           rdf:resource="http://creativecommons.org/ns#ShareAlike" />
      </cc:License>
    </rdf:RDF>
  </metadata>
  <defs
     id="defs5">
    <style
       id="style3">.cls-1{fill:none;stroke:#545454;stroke-linecap:round;stroke-linejoin:round;}.cls-2{fill:#1a81c4;}.cls-3{fill:#bf2641;}.cls-4{fill:#fff;}</style>
  </defs>
  <title
     id="title7">module_editor</title>
  <polygon
     class="cls-1"
     points="21.531,4.063 1.247,4.063 1.247,8.578 2.995,10.153 2.995,12.325 1.247,13.899 1.247,18.922 21.516,18.922 "
     id="polygon9"
     transform="matrix(1.1338986,0,0,1.1442747,-0.91662774,-1.1958747)"
     style="stroke-width:0.877906" />
  <rect
     class="cls-2"
     x="2.9605565"
     y="0.0042999983"
     width="5.0280428"
     height="6.9999995"
     id="rect19"
     style="stroke-width:1" />
  <rect
     class="cls-2"
     x="9.960556"
     y="0.0042999983"
     width="5.0280428"
     height="6.9999995"
     id="rect875"
     style="stroke-width:1" />
  <rect
     class="cls-2"
     x="16.960556"
     y="0.0042999983"
     width="5.0280428"
     height="6.9999995"
     id="rect877"
     style="stroke-width:1" />
  <rect
     class="cls-2"
     x="2.9605565"
     y="17.004299"
     width="5.0280428"
     height="6.9999995"
     id="rect879"
     style="stroke-width:1" />
  <rect
     class="cls-2"
     x="9.960556"
     y="17.004299"
     width="5.0280428"
     height="6.9999995"
     id="rect881"
     style="stroke-width:1" />
  <rect
     class="cls-2"
     x="16.960556"
     y="17.004299"
     width="5.0280428"
     height="6.9999995"
     id="rect883"
     style="stroke-width:1" />
  <circle
     class="cls-3"
     cx="17"
     cy="17"
     id="circle842"
     style="fill:#ffffff;fill-opacity:1;stroke-width:0.999999"
     r="7.9999995" />
  <circle
     class="cls-3"
     cx="17"
     cy="17"
     id="ellipse22"
     style="fill:#bf2641;stroke-width:0.999999;fill-opacity:1"
     r="7" />
  <path
     class="cls-4"
     d="m 21.539701,13 -0.645179,-0.645178 c -0.401772,-0.40166 -1.053055,-0.40166 -1.454827,0 l -5.316089,5.34082 2.100005,2.100132 5.31609,-5.340946 c 0.401659,-0.401772 0.401659,-1.053056 0,-1.454828 z"
     id="path25"
     style="fill:#ffffff;stroke-width:1"
     sodipodi:nodetypes="ccccccc" />
  <path
     id="polygon27"
     style="fill:#ffffff;stroke-width:1"
     d="m 13,21 h 3 c -0.779315,-0.772295 -2.28388,-2.275534 -3,-3 z"
     sodipodi:nodetypes="cccc" />
</svg>
